material = {
	
	effect = "./effects/object_parallax.effect",

	textures = {
		{
			sampler  	= "uAlbedoTexture",
			resource 	= "./models/ground/textures/T_Tile_White_D.tga",
			format   	= "sRGB888",
			filtering   = "Anisotropic"
		},

		{
			sampler  	= "uNormalTexture",
			resource 	= "./models/ground/textures/T_Tile_White_N.tga",
			format   	= "RGB888",
			filtering   = "Anisotropic"
		},

		{
			sampler  	= "uSurfaceTexture",
			resource 	= "./models/ground/textures/T_Tile_White_S.tga",
			format   	= "RGB888",
			filtering   = "Anisotropic"
		},

		{
			sampler  	= "uAOTexture",
			resource 	= "./models/ground/textures/T_Tile_White_AO.tga",
			format   	= "RGB888",
			filtering   = "Anisotropic"
		},

		{
			sampler  	= "uHeightTexture",
			resource 	= "./models/ground/textures/T_Tile_White_AO.tga",
			format   	= "RGB888",
			filtering   = "Anisotropic"
		}
	}
}