material = {
	
	effect = "./effects/object.effect",

	textures = {
		{
			sampler  	= "uAlbedoTexture",
			resource 	= "./models/MatTester/textures/rubber_albedo.png",
			format   	= "sRGB888",
			filtering   = "Trilinear"
		},

		{
			sampler  	= "uNormalTexture",
			resource 	= "./models/MatTester/textures/brushed_metal_normal.jpg",
			format   	= "RGB888",
			filtering   = "Trilinear"
		},

		{
			sampler  	= "uSurfaceTexture",
			resource 	= "./models/MatTester/textures/rubber_surface.png",
			format   	= "RGB888",
			filtering   = "Trilinear"
		},

		{
			sampler  	= "uAOTexture",
			resource 	= "./models/matsphere/matsphere_ao.jpg",
			format   	= "RGB888",
			filtering   = "Trilinear"
		}
	}
}