^G:\BIOSPHERE\LIBRARIES\OCULUSSDK\LIBOVR\SRC\OVR_CAPISHIM.C
/c /I"C:\Program Files (x86)\Visual Leak Detector\include" /I../../../Include /Z7 /nologo /W4 /WX- /MP /Od /Oy- /D OVR_BUILD_DEBUG /D _WIN64 /D _DEBUG /D _LIB /D _UNICODE /D UNICODE /Gm- /RTC1 /MTd /GS /fp:precise /Zc:wchar_t /Zc:forScope /GR- /Fo"../../../Obj/Windows/x64/Debug/VS2010/" /Fd"../../../Obj/Windows/x64/Debug/VS2010/vc100.pdb" /Gd /TC /Zl /errorReport:prompt /FC  G:\BIOSPHERE\LIBRARIES\OCULUSSDK\LIBOVR\SRC\OVR_CAPISHIM.C
^G:\BIOSPHERE\LIBRARIES\OCULUSSDK\LIBOVR\SRC\OVR_CAPI_UTIL.CPP
/c /I"C:\Program Files (x86)\Visual Leak Detector\include" /I../../../Include /Z7 /nologo /W4 /WX- /MP /Od /Oy- /D OVR_BUILD_DEBUG /D _WIN64 /D _DEBUG /D _LIB /D _UNICODE /D UNICODE /Gm- /RTC1 /MTd /GS /fp:precise /Zc:wchar_t /Zc:forScope /GR- /Fo"../../../Obj/Windows/x64/Debug/VS2010/" /Fd"../../../Obj/Windows/x64/Debug/VS2010/vc100.pdb" /Gd /TP /Zl /errorReport:prompt /FC  G:\BIOSPHERE\LIBRARIES\OCULUSSDK\LIBOVR\SRC\OVR_CAPI_UTIL.CPP
^G:\BIOSPHERE\LIBRARIES\OCULUSSDK\LIBOVR\SRC\OVR_STEREOPROJECTION.CPP
/c /I"C:\Program Files (x86)\Visual Leak Detector\include" /I../../../Include /Z7 /nologo /W4 /WX- /MP /Od /Oy- /D OVR_BUILD_DEBUG /D _WIN64 /D _DEBUG /D _LIB /D _UNICODE /D UNICODE /Gm- /RTC1 /MTd /GS /fp:precise /Zc:wchar_t /Zc:forScope /GR- /Fo"../../../Obj/Windows/x64/Debug/VS2010/" /Fd"../../../Obj/Windows/x64/Debug/VS2010/vc100.pdb" /Gd /TP /Zl /errorReport:prompt /FC  G:\BIOSPHERE\LIBRARIES\OCULUSSDK\LIBOVR\SRC\OVR_STEREOPROJECTION.CPP
